Benchmarking Water Point Functionality in Uganda (2017–2020): Insights for Sustainable Rural Water Supply
…
#Group by report date
uganda_water_data |> 
  group_by(report_date) |> 
  summarise(count = n(), .groups = "drop") 

# A tibble: 128 × 2
   report_date         count
   <dttm>              <int>
 1 2005-09-07 00:00:00     4
 2 2010-04-19 00:00:00    28
 3 2010-04-20 00:00:00    26
 4 2010-04-21 00:00:00    60
 5 2010-04-22 00:00:00    82
 6 2010-04-23 00:00:00    32
 7 2010-04-24 00:00:00    21
 8 2010-04-25 00:00:00    36
 9 2010-04-26 00:00:00    34
10 2010-04-27 00:00:00    32
# ℹ 118 more rows

#Group by year of installation
uganda_water_data |> 
  group_by(install_year) |> 
  summarise(count = n(), .groups = "drop") 

# A tibble: 39 × 2
   install_year count
          <dbl> <int>
 1         1970     1
 2         1976     1
 3         1978     1
 4         1980     1
 5         1983     1
 6         1985     1
 7         1987     5
 8         1988     3
 9         1989     2
10         1990     7
# ℹ 29 more rows
…
